Sample	PAM50
3989	LumA
4069	LumB
4072	LumA
4080	LumA
4083	Basal
4224	LumB
4261	LumA
4266	LumA
4267	LumA
4315	Her2
4604	LumA
4606	LumA
4607	LumA
4613	LumA
4833	Basal
4836	Basal
4841	Basal
4845	Basal
4845	Basal
4847	Her2
4951	LumA
4953	LumB
4954	LumB
4955	LumB
4957	LumA
4958	LumB
4959	LumB
4962	Her2
4963	LumA
4967	LumA
4969	LumA
4970	LumA
4971	LumA
4975	Basal
4976	LumB
4977	Her2
4981	LumA
4982	LumA
4983	LumA
4985	LumA
5928	LumB
5930	Basal
5932	Basal
5933	LumB
5934	Basal
5936	LumB
5937	LumB
5938	LumA
5942	Basal
5945	Basal
5946	LumB
5947	LumA
5948	Basal
5950	Basal
5954	LumA
5956	LumB
5959	LumA
5960	LumB
5961	Normal
5964	LumB
6016	LumA
6018	Her2
6041	LumA
6042	Her2
6043	Her2
6046	LumB
6406	Basal
6408	Basal
6409	Basal
6411	Basal
6413	Basal
6417	LumB
6418	LumA
6422	LumA
6466	LumA
6684	LumA
6719	Normal
6720	LumA
6721	LumA
6722	Basal
6727	Basal
6728	Basal
6729	Basal
6730	Basal
6731	Basal
6732	Basal
6733	Basal
7199	LumA
7206	LumA
7211	Basal
7212	LumB
7214	LumA
7215	Normal
7216	LumA
7217	Basal
7218	LumA
7219	LumB
7220	Basal
7221	LumA
7238	LumA
7239	LumB
7240	LumB
7241	LumB
7247	Basal
7248	Basal
7249	Her2
7250	Basal
7310	LumA
7314	LumB
7316	Basal
7318	LumB
7321	Basal
7426	Basal
7427	Basal
7428	Basal
7431	Basal
7454	LumA
8607	LumA
8608	LumA
8609	LumA
8611	Basal
8612	LumB
8614	LumA
8615	LumA
8616	Her2
8618	LumA
8620	LumA
8622	LumB
8623	LumB
8652	Basal
8660	Basal
8828	LumA
8830	Basal
8832	Basal
8965	Basal
8971	LumA
8977	LumA
8978	LumA
8979	LumB
8980	LumB
8981	LumA
8982	Basal
8984	Basal
9000	LumB
9001	LumA
9002	LumB
9004	Basal
9062	LumB
9063	LumB
9064	Basal
9065	LumB
9066	LumA
9067	LumA
9464	LumB
9473	LumB
9539	LumB
9541	LumB
9544	LumA
9567	LumB
9568	Basal
9569	LumB
9570	LumA
9571	Basal
9572	LumA
9573	LumA
9574	LumA
9575	Her2
9578	LumA
9579	Her2
9582	LumA
9584	Her2
9585	Basal
9589	LumA
9592	Basal
9593	LumB
9596	LumA
9597	LumA
9599	Her2
9606	LumA
9608	LumB
9754	LumA
9755	LumA
9757	LumA
9758	Basal
9759	LumB
9761	LumA
9768	Basal
9770	Her2
9772	Basal
9775	Basal
9777	Basal
9842	LumA
9844	LumA
9845	LumA
9847	LumA
10010	Basal
10011	Basal
10014	Basal
11324	Normal
11325	Normal
11326	Basal
11327	Basal
11336	LumA
11337	LumB
11338	LumB
11339	LumB
11340	Her2
11341	LumA
11342	LumA
11352	LumA
11354	LumA
11355	LumA
11357	LumA
11359	LumA
11360	LumA
11361	LumA
11364	LumA
11365	LumA
11366	LumA
11367	LumA
11368	LumB
11369	LumB
11370	LumA
11372	LumB
11374	LumB
11375	LumA
11377	LumA
11378	LumA
11380	LumA
11381	LumA
11383	LumB
11384	LumA
11385	LumB
11386	LumA
11389	LumB
11390	LumA
11391	LumA
11393	LumB
11394	LumB
11396	LumA
11397	LumB
11399	LumA
11402	LumA
11743	LumA
11744	LumA
11745	LumB
11748	Basal
11750	Basal
11751	Basal
11754	LumA
11755	Her2
11756	LumA
11757	Her2
11760	Her2
11762	LumA
11764	LumA
11768	Her2
11817	LumA
11818	LumB
11819	LumA
11820	LumB
13296	Basal
13297	Basal
13298	Basal
13299	Basal
13302	LumA
13304	LumA
13306	LumA
13307	LumB
13308	LumA
13310	LumB
13311	Basal
13312	LumA
13358	LumA
13416	LumA
13418	Basal
13419	LumA
13420	LumA
13421	LumA
13422	LumA
13424	LumB
13426	LumA
13427	LumA
13428	Basal
13619	LumA
13622	Basal
13623	LumA
13625	LumA
13626	LumA
13629	LumA
13631	LumA
13632	LumA
13633	LumA
13749	Basal
13752	LumB
13754	LumA
13755	LumA
13761	LumA
13766	LumB
13768	LumA
13769	LumA
13770	LumA
13771	LumB
14432	LumB
14434	LumA
14435	LumB
14436	LumA
14437	Her2
14439	LumA
14441	LumA
14442	LumA
14447	LumA
14455	LumA
14460	LumB
14461	LumA
15679	LumA
15680	LumA
15681	LumA
18007	LumB
18017	Her2
18020	Basal
18022	Normal
18024	LumB
18031	Basal
18037	Basal
18151	LumA
18170	LumA
18255	LumB
18259	LumA
18730	LumB
18734	LumB
18748	LumA
18749	LumA
18751	LumA
18754	LumA
18758	LumA
18759	LumB
18775	LumA
20342	LumA
20343	LumA
20344	LumB
20345	LumB
20400	LumA
20401	LumB
20403	Her2
20404	LumA
20405	LumA
72013	LumB
74092	Her2
74332	LumA
