Project	Total_donors	WXS_RNAseq	WXS_RNAseq_link	WGS_RNAseq	WGS_RNAseq_miRNAseq_link	CNA_data	Solid_tumour_samples	Solid_tumour-blood_pairs
BLCA-US	412	129	https://dcc.icgc.org/analysis/view/set/75516e6a-06d5-44c9-8af2-c22e170c26a9	114	https://dcc.icgc.org/analysis/view/set/e4ee93d0-df98-4308-9db5-e593ab265d09	YES		
BRCA-US	1099	954	https://dcc.icgc.org/analysis/view/set/c782ec28-57a9-4c41-b953-4549d09f5341	107	https://dcc.icgc.org/analysis/view/set/fd01cb33-0e7d-4eac-8e68-440a65029d72	YES		
CESC-US	308	193	https://dcc.icgc.org/analysis/view/set/a805e34b-9d77-4f1e-8d0c-f24f0b9b0e74	20	https://dcc.icgc.org/analysis/view/set/9a54e1fb-2f39-499d-91a5-79b686cfd8e8	YES		
COAD-US	459	215	https://dcc.icgc.org/analysis/view/set/44521d48-1746-4818-8193-ccc4d3d20dd1	86	https://dcc.icgc.org/analysis/view/set/7381ac76-a8cb-40b4-a355-dc9829aa0122	YES		
HNSC-US	528	143	https://dcc.icgc.org/analysis/view/set/1ad28471-388c-4d6e-8648-43ed233589fb	141	https://dcc.icgc.org/analysis/view/set/5aa705ff-b29c-4fb8-ab24-5c6e591d95e1	YES		
KIRC-US	537	402	https://dcc.icgc.org/analysis/view/set/2971311c-f83e-4624-9335-91c18436c4fd	36	https://dcc.icgc.org/analysis/view/set/aa994199-700e-4497-ae13-aca14499b716	YES		
KIRP-US	291	159	https://dcc.icgc.org/analysis/view/set/2a7cc963-f4a1-47b1-aa05-f337437964a7	33	https://dcc.icgc.org/analysis/view/set/a3aff899-bef7-4cee-ab88-758b5c4ca36c	YES		
LGG-US	515	283	https://dcc.icgc.org/analysis/view/set/e5709438-53cb-4e03-ada2-bdbb0d86bb26	69	https://dcc.icgc.org/analysis/view/set/2d0edbc3-8783-4aaf-b9cd-bc4d854b0b6d	YES		
LIHC-US	377	184	https://dcc.icgc.org/analysis/view/set/ae9c12f5-415a-497d-acee-199ac3ce6bfd	50	https://dcc.icgc.org/analysis/view/set/242c3824-1257-4660-b25c-7cf9443e9ce8	YES		
LUAD-US	522	133	https://dcc.icgc.org/analysis/view/set/d1573a48-caf9-4b7d-af8b-de99a3c552da	129	https://dcc.icgc.org/analysis/view/set/d22d1cc7-7671-451b-9132-5833b9c29de7	YES		
LUSC-US	504	178	https://dcc.icgc.org/analysis/view/set/da4755ce-bea1-440c-917e-a6d69757d4a5	42	https://dcc.icgc.org/analysis/view/set/276000ba-74f7-4b30-8742-bb680d2c7e45	YES		
MALY-DE	274	104	https://dcc.icgc.org/analysis/view/set/efd2490c-cbb9-4aec-9a62-32f1f0727034	NA	NA	NO		
OV-AU	93	93	https://dcc.icgc.org/analysis/view/set/822b9f1f-32ad-4b42-b978-e1f0c34a8dbf	NA	NA	NO		
OV-US	586	36	https://dcc.icgc.org/analysis/view/set/4c8eef01-b9bc-4ab0-9dfd-55247b4c6215	20	https://dcc.icgc.org/analysis/view/set/74d1d470-215c-469d-aca3-1a04741a5a38	YES		
PRAD-US	500	254	https://dcc.icgc.org/analysis/view/set/0a09eaa1-e1d4-4519-b645-2c449282ddad	120	https://dcc.icgc.org/analysis/view/set/ca19f88f-7f32-48bf-9078-0c17da73eef5	YES		
READ-US	171	80	https://dcc.icgc.org/analysis/view/set/93ae42ea-b5fd-4ab2-bc9d-46d6de5bc4d5	34	https://dcc.icgc.org/analysis/view/set/07bb633f-02e8-4326-9d4a-e2937af1da54	YES		
SKCM-US	471	333	https://dcc.icgc.org/analysis/view/set/01b13f60-5286-4708-88f6-e6aa9005ac0e	138	https://dcc.icgc.org/analysis/view/set/cf93dedf-8f35-4e91-aac0-acbc31e43e25	YES		
STAD-US	443	275	https://dcc.icgc.org/analysis/view/set/9cfa5e6d-af69-4141-a3d2-c81f873e6b8f	115	https://dcc.icgc.org/analysis/view/set/99f4cbfa-407b-49f0-8210-333e0a75b296	YES		
THCA-US	507	398	https://dcc.icgc.org/analysis/view/set/3dbad62b-071f-4177-8f2b-852388e2054b	132	https://dcc.icgc.org/analysis/view/set/90aa16ea-5f4a-4e7f-a4ac-d298c80b264e	YES		
UCEC-US	548	243	https://dcc.icgc.org/analysis/view/set/4411a117-9e04-4cc1-926e-049b51130b90	137	https://dcc.icgc.org/analysis/view/set/bff0cba7-310d-4824-a92d-7125bb03d5e0	YES		
